<svg xmlns="http://www.w3.org/2000/svg" viewBox="13145 972 17 17">
  <defs>
    <style>
      .cls-1 {
        fill: #fff;
      }

      .cls-1, .cls-2 {
        stroke: #f4792a;
      }

      .cls-2, .cls-4 {
        fill: none;
      }

      .cls-3 {
        stroke: none;
      }
    </style>
  </defs>
  <g id="add_icon_org" transform="translate(12806 -152)">
    <g id="x" transform="translate(290 1075)">
      <g id="Rectangle_724" data-name="Rectangle 724" class="cls-1" transform="translate(49 49)">
        <rect class="cls-3" width="17" height="17" rx="8.5"/>
        <rect class="cls-4" x="0.5" y="0.5" width="16" height="16" rx="8"/>
      </g>
    </g>
    <line id="Line_497" data-name="Line 497" class="cls-2" x2="8" transform="translate(343.5 1132.5)"/>
    <line id="Line_498" data-name="Line 498" class="cls-2" x2="8" transform="translate(347.5 1128.5) rotate(90)"/>
  </g>
</svg>
