<svg xmlns="http://www.w3.org/2000/svg" viewBox="7383.5 505 15 9.25">
  <defs>
    <style>
      .cls-1 {
        fill: #808495;
        fill-rule: evenodd;
      }
    </style>
  </defs>
  <path id="arrow_up_icon" class="cls-1" d="M13.5,8,6,15.5l1.75,1.75L13.5,11.5l5.75,5.75L21,15.5Z" transform="translate(7377.5 497)"/>
</svg>
