<svg xmlns="http://www.w3.org/2000/svg" viewBox="4782 115 19 19">
  <defs>
    <style>
      .cls-1, .cls-4 {
        fill: none;
      }

      .cls-1 {
        stroke: #777;
      }

      .cls-2 {
        fill: #777;
        fill-rule: evenodd;
      }

      .cls-3 {
        stroke: none;
      }
    </style>
  </defs>
  <g id="Group_346" data-name="Group 346" transform="translate(4782 115.102)">
    <g id="x" transform="translate(0 -0.102)">
      <g id="Rectangle_724" data-name="Rectangle 724" class="cls-1">
        <rect class="cls-3" width="19" height="19" rx="9.5"/>
        <rect class="cls-4" x="0.5" y="0.5" width="18" height="18" rx="9"/>
      </g>
    </g>
    <path id="path" class="cls-2" d="M12,5.7,11.3,5,8.5,7.8,5.7,5,5,5.7,7.8,8.5,5,11.3l.7.7L8.5,9.2,11.3,12l.7-.7L9.2,8.5Z" transform="translate(1 0.898)"/>
  </g>
</svg>
