<svg xmlns="http://www.w3.org/2000/svg" viewBox="1056.418 485 7 11.033">
  <defs>
    <style>
      .cls-1 {
        fill: #f4792a;
      }
    </style>
  </defs>
  <path id="Path_26" data-name="Path 26" class="cls-1" d="M8.116,11.6,2.6,6.041,4.03,4.6,8.116,8.718,12.2,4.6l1.43,1.441Z" transform="translate(1068.018 482.4) rotate(90)"/>
</svg>
